…
``` r
p1 <- plot_atlas(0)
ggplot2::ggsave(filename = "plot_title.svg", 
                plot = p1) # <- will save to the local directory, check ?ggsave
```

### Plot counts calculated elsewhere

This package comes with data that contains cell counts in different
brain regions.

``` r
trial_df
#> # A tibble: 568 x 4
#>    parent side  value mm_from_bregma
#>    <chr>  <chr> <dbl>          <dbl>
#>  1 MOp    left      6           2.72
#>  2 MOs    left      6           2.72
#>  3 PL     left     17           2.72
#>  4 MOp    right     0           2.72
#>  5 MOs    right    14           2.72
#>  6 PL     right    18           2.72
#>  7 ACAd   left     24           2.01
#>  8 DP     left      3           2.01
#>  9 EP     left      3           2.01
#> 10 MOp    left      6           2.01
#> # … with 558 more rows
```
…
